Project 1: Exploratory Data Analysis
…
If your data sets are already tidy, demonstrate the use of pivot_longer()/gather() and pivot_wider()/spread() on all or part of your data at some point in this document (e.g., after you have generated summary statistics in part 3, make a table of them wide instead of long).

library(readxl)
CD <- read_excel("CD.xlsx")
CP <- read_excel("CP.xlsx")
# View(CP)

library(tidyr)
# untidying data and retidying it since the data was already
# clean:
uncleanCD <- CD %>% pivot_longer(!country, names_to = "Catagories", 
    values_to = "Value")  #messy CD
uncleanCD %>% pivot_wider(names_from = Catagories, values_from = Value)  #clean CD

## # A tibble: 167 x 10
##    country child_mort exports health imports income inflation life_expec
##    <chr>        <dbl>   <dbl>  <dbl>   <dbl>  <dbl>     <dbl>      <dbl>
##  1 Afghan…       90.2    10     7.58    44.9   1610     9.44        56.2
##  2 Albania       16.6    28     6.55    48.6   9930     4.49        76.3
##  3 Algeria       27.3    38.4   4.17    31.4  12900    16.1         76.5
##  4 Angola       119      62.3   2.85    42.9   5900    22.4         60.1
##  5 Antigu…       10.3    45.5   6.03    58.9  19100     1.44        76.8
##  6 Argent…       14.5    18.9   8.1     16    18700    20.9         75.8
##  7 Armenia       18.1    20.8   4.4     45.3   6700     7.77        73.3
##  8 Austra…        4.8    19.8   8.73    20.9  41400     1.16        82  
##  9 Austria        4.3    51.3  11       47.8  43200     0.873       80.5
## 10 Azerba…       39.2    54.3   5.88    20.7  16000    13.8         69.1
## # … with 157 more rows, and 2 more variables: total_fer <dbl>, gdpp <dbl>

uncleanCP <- CP %>% pivot_longer(cols = Region:`Surface area (km2)`, 
    names_to = "Catagories", values_to = "Value")  #messy CP
uncleanCP %>% pivot_wider(names_from = Catagories, values_from = Value)  #clean CP

## # A tibble: 229 x 50
##    country `Population in … `Population den… `Sex ratio (m p… `GDP: Gross dom…
##    <chr>              <dbl>            <dbl>            <dbl>            <dbl>
##  1 Afghan…            35530             54.4            106.             20270
##  2 Albania             2930            107.             102.             11541
##  3 Algeria            41318             17.3            102             164779
##  4 Americ…               56            278.             104.               -99
##  5 Andorra               77            164.             102.              2812
##  6 Angola             29784             23.9             96.2           117955
##  7 Anguil…               15            166.              97.6              320
##  8 Antigu…              102            232.              92.3             1356
##  9 Argent…            44271             16.2             95.9           632343
## 10 Armenia             2930            103.              88.8            10529
## # … with 219 more rows, and 45 more variables: `GDP growth rate (annual %,
## #   const. 2005 prices)` <chr>, `GDP per capita (current US$)` <dbl>, `Economy:
## #   Agriculture (% of GVA)` <chr>, `Economy: Industry (% of GVA)` <dbl>,
## #   `Economy: Services and other activity (% of GVA)` <dbl>, `Employment:
## #   Agriculture (% of employed)` <chr>, `Employment: Industry (% of
## #   employed)` <chr>, `Employment: Services (% of employed)` <chr>,
## #   `Unemployment (% of labour force)` <chr>, `Labour force participation
## #   (female/male pop. %)` <chr>, `Agricultural production index
## #   (2004-2006=100)` <dbl>, `Food production index (2004-2006=100)` <dbl>,
…
# filter
filter(totaldata1, life_expec > 70)

## # A tibble: 88 x 59
##    country child_mort exports health imports income inflation life_expec
##    <chr>        <dbl>   <dbl>  <dbl>   <dbl>  <dbl>     <dbl>      <dbl>
##  1 Albania       16.6    28     6.55    48.6   9930     4.49        76.3
##  2 Algeria       27.3    38.4   4.17    31.4  12900    16.1         76.5
##  3 Antigu…       10.3    45.5   6.03    58.9  19100     1.44        76.8
##  4 Argent…       14.5    18.9   8.1     16    18700    20.9         75.8
##  5 Armenia       18.1    20.8   4.4     45.3   6700     7.77        73.3
##  6 Austra…        4.8    19.8   8.73    20.9  41400     1.16        82  
##  7 Austria        4.3    51.3  11       47.8  43200     0.873       80.5
##  8 Bahamas       13.8    35     7.89    43.7  22900    -0.393       73.8
##  9 Bahrain        8.6    69.5   4.97    50.9  41100     7.44        76  
## 10 Bangla…       49.4    16     3.52    21.8   2440     7.14        70.4
## # … with 78 more rows, and 51 more variables: total_fer <dbl>, gdpp <dbl>,
## #   Region <chr>, `Surface area (km2)` <chr>, `Population in thousands
## #   (2017)` <dbl>, `Population density (per km2, 2017)` <dbl>, `Sex ratio (m
## #   per 100 f, 2017)` <dbl>, `GDP: Gross domestic product (million current
## #   US$)` <dbl>, `GDP growth rate (annual %, const. 2005 prices)` <chr>, `GDP
## #   per capita (current US$)` <dbl>, `Economy: Agriculture (% of GVA)` <chr>,
## #   `Economy: Industry (% of GVA)` <dbl>, `Economy: Services and other activity
## #   (% of GVA)` <dbl>, `Employment: Agriculture (% of employed)` <chr>,
## #   `Employment: Industry (% of employed)` <chr>, `Employment: Services (% of
…
names(totaldata1)[18] <- "GDP_per_capita"
filter(totaldata1, life_expec > 70 & GDP_per_capita > 5000)

## # A tibble: 69 x 59
##    country child_mort exports health imports income inflation life_expec
##    <chr>        <dbl>   <dbl>  <dbl>   <dbl>  <dbl>     <dbl>      <dbl>
##  1 Antigu…       10.3    45.5   6.03    58.9  19100     1.44        76.8
##  2 Argent…       14.5    18.9   8.1     16    18700    20.9         75.8
##  3 Austra…        4.8    19.8   8.73    20.9  41400     1.16        82  
##  4 Austria        4.3    51.3  11       47.8  43200     0.873       80.5
##  5 Bahamas       13.8    35     7.89    43.7  22900    -0.393       73.8
##  6 Bahrain        8.6    69.5   4.97    50.9  41100     7.44        76  
##  7 Barbad…       14.2    39.5   7.97    48.7  15300     0.321       76.7
##  8 Belarus        5.5    51.4   5.61    64.5  16200    15.1         70.4
##  9 Belgium        4.5    76.4  10.7     74.7  41100     1.88        80  
## 10 Brazil        19.8    10.7   9.01    11.8  14500     8.41        74.2
## # … with 59 more rows, and 51 more variables: total_fer <dbl>, gdpp <dbl>,
## #   Region <chr>, `Surface area (km2)` <chr>, `Population in thousands
## #   (2017)` <dbl>, `Population density (per km2, 2017)` <dbl>, `Sex ratio (m
## #   per 100 f, 2017)` <dbl>, `GDP: Gross domestic product (million current
## #   US$)` <dbl>, `GDP growth rate (annual %, const. 2005 prices)` <chr>,
## #   GDP_per_capita <dbl>, `Economy: Agriculture (% of GVA)` <chr>, `Economy:
## #   Industry (% of GVA)` <dbl>, `Economy: Services and other activity (% of
## #   GVA)` <dbl>, `Employment: Agriculture (% of employed)` <chr>, `Employment:
## #   Industry (% of employed)` <chr>, `Employment: Services (% of
…
# select
select(totaldata1, 1, 8, 15, 18, 48)

## # A tibble: 146 x 5
##    country    life_expec `Sex ratio (m per… GDP_per_capita `Seats held by women…
##    <chr>           <dbl>              <dbl>          <dbl>                 <dbl>
##  1 Afghanist…       56.2              106.            623.                  27.7
##  2 Albania          76.3              102.           3984.                  22.9
##  3 Algeria          76.5              102            4154.                  31.6
##  4 Angola           60.1               96.2          4714.                  38.2
##  5 Antigua a…       76.8               92.3         14764.                  11.1
##  6 Argentina        75.8               95.9         14564.                  38.9
##  7 Armenia          73.3               88.8          3489.                   9.9
##  8 Australia        82                 99.3         51352.                  28.7
##  9 Austria          80.5               96.2         44118.                  30.6
## 10 Azerbaijan       69.1               99.3          5439.                  16.8
## # … with 136 more rows

# arange
arrange(totaldata1, desc(GDP_per_capita))

## # A tibble: 146 x 59
##    country child_mort exports health imports income inflation life_expec
##    <chr>        <dbl>   <dbl>  <dbl>   <dbl>  <dbl>     <dbl>      <dbl>
##  1 Luxemb…        2.8   175     7.77   142    91700     3.62        81.3
##  2 Switze…        4.5    64    11.5     53.3  55500     0.317       82.2
##  3 Norway         3.2    39.7   9.48    28.5  62300     5.95        81  
##  4 Qatar          9      62.3   1.81    23.8 125000     6.98        79.5
##  5 Ireland        4.2   103     9.19    86.5  45700    -3.22        80.4
##  6 Denmark        4.1    50.5  11.4     43.6  44000     3.22        79.5
##  7 Singap…        2.8   200     3.96   174    72100    -0.046       82.7
##  8 Austra…        4.8    19.8   8.73    20.9  41400     1.16        82  
##  9 Iceland        2.6    53.4   9.4     43.3  38800     5.47        82  
## 10 Sweden         3      46.2   9.63    40.7  42900     0.991       81.5
## # … with 136 more rows, and 51 more variables: total_fer <dbl>, gdpp <dbl>,
## #   Region <chr>, `Surface area (km2)` <chr>, `Population in thousands
## #   (2017)` <dbl>, `Population density (per km2, 2017)` <dbl>, `Sex ratio (m
## #   per 100 f, 2017)` <dbl>, `GDP: Gross domestic product (million current
## #   US$)` <dbl>, `GDP growth rate (annual %, const. 2005 prices)` <chr>,
## #   GDP_per_capita <dbl>, `Economy: Agriculture (% of GVA)` <chr>, `Economy:
## #   Industry (% of GVA)` <dbl>, `Economy: Services and other activity (% of
## #   GVA)` <dbl>, `Employment: Agriculture (% of employed)` <chr>, `Employment:
## #   Industry (% of employed)` <chr>, `Employment: Services (% of
…
# group_by
totaldata1 %>% group_by(Region) %>% summarize(n())

## # A tibble: 22 x 2
##    Region         `n()`
##    <chr>          <int>
##  1 Caribbean          7
##  2 CentralAmerica     5
##  3 CentralAsia        4
##  4 EasternAfrica     12
##  5 EasternAsia        3
##  6 EasternEurope      6
##  7 Melanesia          3
##  8 Micronesia         1
##  9 MiddleAfrica       6
## 10 NorthernAfrica     6
## # … with 12 more rows

# mutate
totaldata1 %>% mutate(exports_per_imports = exports/imports)

## # A tibble: 146 x 60
##    country child_mort exports health imports income inflation life_expec
##    <chr>        <dbl>   <dbl>  <dbl>   <dbl>  <dbl>     <dbl>      <dbl>
##  1 Afghan…       90.2    10     7.58    44.9   1610     9.44        56.2
##  2 Albania       16.6    28     6.55    48.6   9930     4.49        76.3
##  3 Algeria       27.3    38.4   4.17    31.4  12900    16.1         76.5
##  4 Angola       119      62.3   2.85    42.9   5900    22.4         60.1
##  5 Antigu…       10.3    45.5   6.03    58.9  19100     1.44        76.8
##  6 Argent…       14.5    18.9   8.1     16    18700    20.9         75.8
##  7 Armenia       18.1    20.8   4.4     45.3   6700     7.77        73.3
##  8 Austra…        4.8    19.8   8.73    20.9  41400     1.16        82  
##  9 Austria        4.3    51.3  11       47.8  43200     0.873       80.5
## 10 Azerba…       39.2    54.3   5.88    20.7  16000    13.8         69.1
## # … with 136 more rows, and 52 more variables: total_fer <dbl>, gdpp <dbl>,
## #   Region <chr>, `Surface area (km2)` <chr>, `Population in thousands
## #   (2017)` <dbl>, `Population density (per km2, 2017)` <dbl>, `Sex ratio (m
## #   per 100 f, 2017)` <dbl>, `GDP: Gross domestic product (million current
## #   US$)` <dbl>, `GDP growth rate (annual %, const. 2005 prices)` <chr>,
## #   GDP_per_capita <dbl>, `Economy: Agriculture (% of GVA)` <chr>, `Economy:
## #   Industry (% of GVA)` <dbl>, `Economy: Services and other activity (% of
## #   GVA)` <dbl>, `Employment: Agriculture (% of employed)` <chr>, `Employment:
## #   Industry (% of employed)` <chr>, `Employment: Services (% of
…
# After grouping by categorical
totaldata1 %>% group_by(Region) %>% summarise(across(.cols = is.numeric, 
    .fns = list(Mean = mean, SD = sd, Min = min, Max = max, Sum = sum), 
    na.rm = TRUE, .names = "{col}_{fn}"))

## # A tibble: 22 x 126
##    Region child_mort_Mean child_mort_SD child_mort_Min child_mort_Max
##    <chr>            <dbl>         <dbl>          <dbl>          <dbl>
##  1 Carib…           44.8          72.4            10.3          208  
##  2 Centr…           20.7           9.13           10.2           35.4
##  3 Centr…           43.0          17.9            21.5           62  
##  4 Easte…           67.5          28.6            14.4          101  
##  5 Easte…           15            11.5             3.2           26.1
##  6 Easte…            8.58          3.03            5.5           11.7
##  7 Melan…           27.1           2.68           24.1           29.2
##  8 Micro…           62.7          NA              62.7           62.7
##  9 Middl…          117.           31.9            63.7          150  
## 10 North…           33.4          22.2            16.6           76.7
## # … with 12 more rows, and 121 more variables: child_mort_Sum <dbl>,
## #   exports_Mean <dbl>, exports_SD <dbl>, exports_Min <dbl>, exports_Max <dbl>,
## #   exports_Sum <dbl>, health_Mean <dbl>, health_SD <dbl>, health_Min <dbl>,
## #   health_Max <dbl>, health_Sum <dbl>, imports_Mean <dbl>, imports_SD <dbl>,
## #   imports_Min <dbl>, imports_Max <dbl>, imports_Sum <dbl>, income_Mean <dbl>,
## #   income_SD <dbl>, income_Min <dbl>, income_Max <dbl>, income_Sum <dbl>,
## #   inflation_Mean <dbl>, inflation_SD <dbl>, inflation_Min <dbl>,
## #   inflation_Max <dbl>, inflation_Sum <dbl>, life_expec_Mean <dbl>,
## #   life_expec_SD <dbl>, life_expec_Min <dbl>, life_expec_Max <dbl>,
…
6. Neatness, Holistic/Discretionary Points (5 pts)

Keep things looking nice! Your project should not knit to more than 30 or so pages (probably closer to 10-20)! You will lose points if you print out your entire dataset(s), have terrible formatting, etc. If you start your project in a fresh .Rmd file, you are advised to copy set-up code below and include it: this will do things like automatically truncate if you accidentally print out a huge dataset, etc. Imagine this is a polished report you are giving to your PI or boss to summarize your work researching a topic.

## paste this chunk into the ```{r setup} chunk at the top of
## your project 1 .Rmd file

knitr::opts_chunk$set(echo = TRUE, eval = TRUE, fig.align = "center", 
    warning = F, message = F, tidy = TRUE, tidy.opts = list(width.cutoff = 60), 
    R.options = list(max.print = 100))

# cortd <-
totaldata1

## # A tibble: 146 x 58
##    country child_mort exports health imports income inflation life_expec
##    <chr>        <dbl>   <dbl>  <dbl>   <dbl>  <dbl>     <dbl>      <dbl>
##  1 Afghan…       90.2    10     7.58    44.9   1610     9.44        56.2
##  2 Albania       16.6    28     6.55    48.6   9930     4.49        76.3
##  3 Algeria       27.3    38.4   4.17    31.4  12900    16.1         76.5
##  4 Angola       119      62.3   2.85    42.9   5900    22.4         60.1
##  5 Antigu…       10.3    45.5   6.03    58.9  19100     1.44        76.8
##  6 Argent…       14.5    18.9   8.1     16    18700    20.9         75.8
##  7 Armenia       18.1    20.8   4.4     45.3   6700     7.77        73.3
##  8 Austra…        4.8    19.8   8.73    20.9  41400     1.16        82  
##  9 Austria        4.3    51.3  11       47.8  43200     0.873       80.5
## 10 Azerba…       39.2    54.3   5.88    20.7  16000    13.8         69.1
## # … with 136 more rows, and 50 more variables: total_fer <dbl>, gdpp <dbl>,
## #   Region <chr>, `Surface area (km2)` <chr>, `Population in thousands
## #   (2017)` <dbl>, `Population density (per km2, 2017)` <dbl>, Sex_ratio <dbl>,
## #   `GDP: Gross domestic product (million current US$)` <dbl>, `GDP growth rate
## #   (annual %, const. 2005 prices)` <chr>, GDP_per_capita <dbl>, `Economy:
## #   Agriculture (% of GVA)` <chr>, `Economy: Industry (% of GVA)` <dbl>,
## #   `Economy: Services and other activity (% of GVA)` <dbl>, `Employment:
## #   Agriculture (% of employed)` <chr>, `Employment: Industry (% of
## #   employed)` <chr>, `Employment: Services (% of employed)` <chr>,
…
